"","name","beta.x","p_val.x","CI.x","p_interac.x","var_outcome.x","beta.y","p_val.y","CI.y","p_interac.y","var_outcome.y","beta.x.x","p_val.x.x","CI.x.x","p_interac.x.x","var_outcome.x.x","beta.y.y","p_val.y.y","CI.y.y","p_interac.y.y","var_outcome.y.y"
"1","group 2",0.31,0.05,"[0, 0.63]",0.113081680980903,"X7",-0.21,0.48,"[-0.79, 0.38]",0.00716893798303797,"R7",-6.15,0.19,"[-15.42, 3.12]",0.0143924478724671,"AX",-0.26,0.06,"[-0.52, 0.01]",0.253226341653402,"R7_19"
"2","group 3",0.44,0.07,"[-0.04, 0.92]",0.376000869296666,"X7",-0.67,0.14,"[-1.56, 0.21]",0.243304656574398,"R7",-7.3,0.31,"[-21.43, 6.82]",0.269527785767865,"AX",-0.18,0.38,"[-0.59, 0.22]",0.681513671448359,"R7_19"
