"","name","beta_X7_mean","IC_inf_X7_mean","IC_sup_X7_mean","p_val_X7_mean","beta_R7_mean","IC_inf_R7_mean","IC_sup_R7_mean","p_val_R7_mean","beta_AX_mean","IC_inf_AX_mean","IC_sup_AX_mean","p_val_AX_mean","beta_R7_19_mean","IC_inf_R7_19_mean","IC_sup_R7_19_mean","p_val_R7_19_mean"
"1","PFOA",0.0415391826914061,-0.254505264617493,0.337583630000305,0.782507110097761,0.0187314994611411,-0.525870756131058,0.56333375505334,0.946046493675642,-1.37333059769806,-10.0352464851016,7.28858528970552,0.755102314650711,-0.140991634320581,-0.389329622272345,0.107346353631183,0.26456878191803
"2","PFNA",0.154287202855279,-0.197655188647911,0.50622959435847,0.388745287805613,-0.303077815068954,-0.950844833571321,0.344689203433414,0.357686578559649,-5.35476913626306,-15.6510536205409,4.9415153480148,0.306698983710748,-0.214691564362708,-0.50992420106648,0.0805410723410647,0.153334942070122
"3","PFDA",0.261531713091797,-0.0149803738702863,0.538043800053879,0.063663688558012,-0.297346072076638,-0.808682263221633,0.213990119068358,0.25319203561246,-6.30430372663173,-14.4169601651323,1.80835271186883,0.127161972051403,-0.215777360485816,-0.448410549810888,0.0168558288392553,0.0689233251210537
"4","PFUnDA",0.283525113323102,-0.0172064566019721,0.584256683248175,0.06451379296608,-0.478919475226372,-1.03299173054703,0.0751527800942863,0.0899306897205465,-8.3544842730545,-17.1555137590613,0.446545212952284,0.0627123684503332,-0.15194077129346,-0.406056541056666,0.102174998469746,0.240072422621641
"5","PFHxS",0.152037181827951,-0.158874891008362,0.462949254664265,0.336431953393869,0.0100480009847294,-0.563378219851908,0.583474221821366,0.972497325699582,-1.88643300806189,-10.9991801661511,7.22631415002734,0.683839250559046,-0.204642436100379,-0.465270040353539,0.0559851681527821,0.123266020703682
"6","PFHpS",0.166544210330409,-0.10833857319129,0.441426993852108,0.233895726255066,-0.0717245452561852,-0.579081403014925,0.435632312502554,0.780916360763362,-1.5196607366473,-9.58503399033173,6.54571251703712,0.710886459361521,-0.103985558720464,-0.335351240218591,0.127380122777662,0.376914460012823
"7","PFOS",0.20011725660928,-0.0712233810647133,0.471457894283274,0.147609112090411,-0.353638809007758,-0.85348592761001,0.146208309594495,0.16473561135212,-4.44478901134183,-12.4026724755052,3.51309445282152,0.272374310818407,-0.116404532036656,-0.345107415254167,0.112298351180855,0.317108545039493
"8","PFHpA*",0.356481056101034,-0.254921201905508,0.967883314107576,0.251933099915268,-0.733816259388911,-1.85938878507104,0.39175626629322,0.200326917005568,-8.50238816152952,-26.4237657341813,9.4189894111223,0.351008640924809,-0.35116014286353,-0.864882442170318,0.162562156443258,0.179436184278373
"9","PFDoDA*",-0.0295527393978157,-0.387438860374296,0.328333381578665,0.870938098518208,-0.10593013144056,-0.764362441440958,0.552502178559837,0.751616887658336,1.96908372016754,-8.50329530642461,12.4414627467597,0.711458734350623,-0.0196702987348391,-0.320337523792408,0.28099692632273,0.89758151578775
"10","PFTrDA*",-0.246974164802737,-0.584423026732574,0.0904746971271,0.150711235849547,0.164688347838709,-0.459190224478923,0.788566920156341,0.603597389669706,7.18890751643083,-2.69501578222575,17.0728308150874,0.153256554959002,0.140715764064461,-0.14375266250785,0.425184190636771,0.33088518449398
"11","PFBS*",-0.165659269914256,-0.659145424771991,0.327826884943479,0.509129762285087,0.733863852637326,-0.171066115423367,1.63879382069802,0.111487616683839,4.9651378390574,-9.48333893635749,19.4136146144723,0.499155443358502,-0.125973146595817,-0.540861456795999,0.288915163604365,0.550383905748648
"12","6:2diPAP*",0.67500310736956,0.147530732034814,1.20247548270431,0.0123466096792888,-1.215945794458,-2.18819979073437,-0.243691798181629,0.0144464979368182,-21.3820446115576,-36.7974059543703,-5.966683268745,0.00674728077993669,-0.298071606867706,-0.745923163146832,0.149779949411421,0.191124633881316
"13","8:2diPAP*",0.0605042285405514,-0.635784904588296,0.756793361669398,0.864253829660596,0.227398222025545,-1.0548330703611,1.50962951441219,0.727175043651524,7.04297407814428,-13.3263094481735,27.412257604462,0.49651790373087,-0.191211522571005,-0.776846373058503,0.394423327916494,0.520786458533382
"14","PFHxPA*",-0.164368730623304,-0.452452762704959,0.123715301458351,0.262214358919871,0.037483329815949,-0.494390220396132,0.56935688002803,0.889721741680924,-4.86666401514817,-13.3033037828456,3.56997575254922,0.257002877806315,-0.0319998398629602,-0.274952177040179,0.210952497314259,0.795535540049677
