"","name","beta_ch_asthma_0_3y_opt","IC_inf_ch_asthma_0_3y_opt","IC_sup_ch_asthma_0_3y_opt","p_val_ch_asthma_0_3y_opt","beta_ch_wheez_0_3y_opt","IC_inf_ch_wheez_0_3y_opt","IC_sup_ch_wheez_0_3y_opt","p_val_ch_wheez_0_3y_opt","beta_ch_bronchiolitis_0_2y_opt","IC_inf_ch_bronchiolitis_0_2y_opt","IC_sup_ch_bronchiolitis_0_2y_opt","p_val_ch_bronchiolitis_0_2y_opt","beta_ch_bronchitis_0_3y_opt","IC_inf_ch_bronchitis_0_3y_opt","IC_sup_ch_bronchitis_0_3y_opt","p_val_ch_bronchitis_0_3y_opt"
"1","PFOA",0.706805332719036,0.372663210961225,1.34055029760383,0.287147317153556,1.18134224617804,0.74197701493743,1.88087969641845,0.481545913529597,0.916823478574609,0.573071668788282,1.46677167385183,0.716541944335605,1.06378173259053,0.631504397351428,1.79196151181124,0.815794524080254
"2","PFNA",0.773831098360244,0.368119852670394,1.62668371305034,0.497832810234975,0.812318426148848,0.469657020269223,1.40498533394154,0.456168599340119,0.705005369823163,0.402561336204213,1.23467538180904,0.220767921368259,1.33900997441526,0.729077754758199,2.45919958451922,0.345668196986455
"3","PFDA",0.976992115551574,0.533364554201939,1.78960822636247,0.939768406587387,0.902121241552588,0.574489418987231,1.41660178162215,0.653838790279557,0.758099545603944,0.478412798935811,1.20129503709623,0.2376069816938,1.37635419167032,0.836112302434723,2.26566557555987,0.208406923593694
"4","PFUnDA",0.745393601149956,0.388426818432749,1.43041518831557,0.375972088452301,0.778012804822407,0.48353073322613,1.25184167804397,0.300094610721752,0.740956916668714,0.455304214017828,1.2058248868694,0.226833311081036,0.971325013281488,0.559891965772231,1.68509701710936,0.917356324096827
"5","PFHxS",0.805207726763931,0.441374065452548,1.46895690977122,0.479045039995513,1.04935729502074,0.696433587224495,1.58112812594474,0.817394426176755,1.09703291866429,0.729410365563901,1.6499371018709,0.655745342451021,1.12770572013679,0.711901218006606,1.78637170307165,0.607759708104009
"6","PFHpS",0.733279150026263,0.425348460108385,1.26413602561586,0.263426405135337,0.915892205524786,0.615650317038916,1.36255681013161,0.663903851365728,1.03204912389772,0.694747630454258,1.53311122981681,0.87554345200654,1.24885071269935,0.799314451355301,1.95120718756579,0.328118945498032
"7","PFOS",0.854756494856538,0.488265394213173,1.49633513691215,0.581920935554759,0.877208548318661,0.578048894152523,1.33119333853495,0.53721924571636,0.706876805718931,0.461257571907986,1.08328805616459,0.110932659325536,1.10929461035887,0.692304594469593,1.77744672273049,0.665571137794068
"8","PFHpA*",0.285316522460471,0.0357726980932416,2.27563260050312,0.235744372298082,0.830855932351533,0.304402428643498,2.26779261716143,0.716930923534419,0.468029526065414,0.16130554513855,1.35799198397592,0.161920523450195,1.25769730399268,0.427091049517922,3.7036657880232,0.676625335749206
"9","PFDoDA*",1.02605727666452,0.487429891032612,2.15988710246286,0.945862462291316,0.970525268211997,0.557042201531986,1.69092986787624,0.915678963143743,0.895835195610814,0.514281878058829,1.56046855223482,0.696980148146415,1.30293792146058,0.701865684610136,2.4187636814343,0.40086226523388
"10","PFTrDA*",0.957517955091271,0.457193709365009,2.00536581221898,0.90814132250379,1.19230716822492,0.704432273416521,2.01807389730417,0.511483616611924,1.02896008647755,0.605025495720704,1.74994089844544,0.915874431093968,1.09714978403086,0.59531157705323,2.02202963120157,0.765740348538265
"11","PFBS*",1.37510988839396,0.507625361880319,3.72504478136116,0.530080079207653,1.83603659917054,0.869882777031559,3.87526972886762,0.110587653978539,0.500253102680861,0.214846677511157,1.16479886792214,0.10793965080255,1.72085994510087,0.752043267832537,3.93775076158517,0.198067076062416
"12","6:2diPAP*",0.48576072750563,0.108476433955442,2.17525111936961,0.344268575073748,0.457314667483071,0.164273485568424,1.27310079512522,0.133800420761598,0.251484987413468,0.0817968151212579,0.773192682387409,0.0161372479294752,0.4880456993388,0.139939375765348,1.70208422997753,0.259584438153269
"13","8:2diPAP*",1.90710593102709,0.485602153317339,7.48977945693316,0.354047771844296,1.07290563346444,0.339076411025571,3.39488817531728,0.904457704248067,0.642009509180607,0.184723016547581,2.23132026307158,0.484712838526865,0.274945912361979,0.0347189618995343,2.17734778313101,0.220642738693293
"14","PFHxPA*",0.664385829303053,0.360692241335164,1.22378160546164,0.188915968694954,1.13713523368389,0.726109077641332,1.78082960191836,0.573570136572885,0.898725757974222,0.57733473745831,1.39902890929833,0.635498874294031,0.998618785029555,0.597557688463886,1.66885891867187,0.995780418673427
