"","name","beta_ch_asthma_0_3y_opt","CI_ch_asthma_0_3y_opt","p_val_ch_asthma_0_3y_opt","beta_ch_wheez_0_3y_opt","CI_ch_wheez_0_3y_opt","p_val_ch_wheez_0_3y_opt","beta_ch_bronchiolitis_0_2y_opt","CI_ch_bronchiolitis_0_2y_opt","p_val_ch_bronchiolitis_0_2y_opt","beta_ch_bronchitis_0_3y_opt","CI_ch_bronchitis_0_3y_opt","p_val_ch_bronchitis_0_3y_opt"
"1","PFOA",0.68,"[0.36, 1.28]",0.23,1.07,"[0.67, 1.7]",0.79,0.89,"[0.56, 1.42]",0.63,1.06,"[0.63, 1.79]",0.82
"2","PFHxS",0.83,"[0.46, 1.49]",0.52,1.11,"[0.74, 1.66]",0.61,1.18,"[0.79, 1.76]",0.41,1.11,"[0.7, 1.75]",0.67
"3","PFOS",0.83,"[0.48, 1.46]",0.52,0.86,"[0.57, 1.3]",0.47,0.7,"[0.46, 1.07]",0.1,1.1,"[0.69, 1.76]",0.69
"4","PFDA",1.07,"[0.59, 1.93]",0.82,0.91,"[0.58, 1.41]",0.67,0.78,"[0.5, 1.22]",0.28,1.47,"[0.9, 2.4]",0.12
"5","PFHpS",0.74,"[0.44, 1.25]",0.26,0.85,"[0.58, 1.25]",0.41,0.94,"[0.64, 1.39]",0.75,1.26,"[0.82, 1.95]",0.29
"6","PFUnDA",0.82,"[0.44, 1.53]",0.54,0.82,"[0.52, 1.28]",0.37,0.74,"[0.47, 1.17]",0.2,1.04,"[0.61, 1.76]",0.89
