"","vars","outlier","beta_ch_asthma_0_3y_opt","IC_inf_ch_asthma_0_3y_opt","IC_sup_ch_asthma_0_3y_opt","p_val_ch_asthma_0_3y_opt","beta_ch_bronchitis_0_3y_opt","IC_inf_ch_bronchitis_0_3y_opt","IC_sup_ch_bronchitis_0_3y_opt","p_val_ch_wheez_0_3y_opt","beta_ch_wheez_0_3y_opt","IC_inf_ch_wheez_0_3y_opt","IC_sup_ch_wheez_0_3y_opt","p_val_ch_wheez_0_3y_opt","beta_ch_bronchiolitis_0_2y_opt","IC_inf_ch_bronchiolitis_0_2y_opt","IC_sup_ch_bronchiolitis_0_2y_opt","p_val_ch_bronchiolitis_0_2y_opt"
"1","PFOA","exposure",0.471998845087899,0.225526873184972,0.987833097750569,0.0463399780383584,0.924885658773103,0.501640514548318,1.70523204764348,0.918585121849891,0.972818645709247,0.572754837897374,1.65232321897758,0.918585121849891,0.764639834167034,0.44876098938389,1.30286297121703,0.322756549398625
"2","PFNA","exposure",0.696001528841691,0.303192432365911,1.59772499719038,0.391707703352795,1.31488482183365,0.658210777210802,2.62669976631936,0.20469907740185,0.679516567058499,0.373684868806038,1.23564747585923,0.20469907740185,0.660670709777804,0.360601222568593,1.21043900974373,0.179094353462129
"3","PFDA","exposure",1.07331842496471,0.551059484282163,2.09054099281024,0.83481169601643,1.2830092840396,0.72764979712669,2.26223222961361,0.990768954377706,0.997094484379203,0.6083076757041,1.63436604614379,0.990768954377706,0.755151259612654,0.455278132886826,1.25253857741578,0.275851459450675
"4","PFUnDA","exposure",0.743704813458168,0.373745789449344,1.47987446327021,0.397986046912023,0.812148949274503,0.451427783399184,1.4611105919115,0.0871881073417999,0.640910387387345,0.384833930387658,1.06738541543677,0.0871881073417999,0.615035565534675,0.365942979122833,1.03368220857596,0.0664341276435803
"5","PFHxS","exposure",0.905890412781044,0.449739852969008,1.82469361910242,0.78152693713956,1.19065228101979,0.658814160648413,2.15182511089678,0.913035458363338,0.971861215074305,0.581540094751224,1.62416010502209,0.913035458363338,1.30288108839203,0.777572786598544,2.18307425329945,0.31415049934111
"6","PFHpS","exposure",0.974703876911515,0.5085885211042,1.86800843558891,0.938309468752236,1.43508684048949,0.820347257313322,2.51049079689859,0.947445035311032,0.984302749814837,0.614182158606847,1.57746670058066,0.947445035311032,1.10990374665897,0.688016080856097,1.79049060207255,0.668359991383032
"7","PFOS","exposure",1.02801569790915,0.550558702668523,1.91953422954774,0.930716713322543,1.21128355756361,0.706901487402937,2.07554784219549,0.649617554808704,0.899096325054065,0.567591882867421,1.42421734018093,0.649617554808704,0.782431465563032,0.491058491060208,1.24669262307503,0.301062056158641
