variable,N,Mean,SD
R7_mean,293,11.8859273884909,2.24790083911343
X7_mean,293,-4.18785060812761,1.22794845781006
AX_mean,293,73.6593270953557,35.4166084738091
R7_19_mean,293,1.28621355915178,1.02656635165117
ch2m_LCI2_corrHV,333,7.57812248375392,1.13873158056796
ch2m_CRF2_corrHV,333,106.515457026582,18.4377120656902
tidalvolumeml,311,34.3157858618586,7.03998015578661
ratiopefexptime,311,36.4231358494406,10.0335983741047
