name,p_interac,var_outcome
mo_PFOA_cor,0.49071817122030725,ch2m_LCI2_corrHV
mo_PFNA,0.08079375799990185,ch2m_LCI2_corrHV
mo_pfda_i_cor,0.13465149830693335,ch2m_LCI2_corrHV
mo_pfunda_i_cor,0.7037805143311688,ch2m_LCI2_corrHV
mo_PFHxS_cor,0.5439203767423362,ch2m_LCI2_corrHV
mo_pfhps_i_cor,0.5370591564526102,ch2m_LCI2_corrHV
mo_PFOS_cor,0.07755355974775435,ch2m_LCI2_corrHV
mo_PFHpA_>=LOD,0.25504437048020745,ch2m_LCI2_corrHV
mo_PFDoDA_>=LOD,0.4615026325707414,ch2m_LCI2_corrHV
mo_PFTrDA_>=LOD,0.7252800396444972,ch2m_LCI2_corrHV
mo_PFBS_>=LOD,0.9241179082895672,ch2m_LCI2_corrHV
mo_PFOSA_>=LOD,0.8230810609661394,ch2m_LCI2_corrHV
mo__6_2diPAP_>=LOD,0.4155944464195147,ch2m_LCI2_corrHV
mo__8_2diPAP_>=LOD,0.33295639534150334,ch2m_LCI2_corrHV
mo_PFHxPA_>=LOD,0.5452942154629254,ch2m_LCI2_corrHV
mo_PFOA_cor,0.7330943051845009,ch2m_CRF2_corrHV
mo_PFNA,0.777068121384964,ch2m_CRF2_corrHV
mo_pfda_i_cor,0.791555450974738,ch2m_CRF2_corrHV
mo_pfunda_i_cor,0.9658156686135406,ch2m_CRF2_corrHV
mo_PFHxS_cor,0.5608569906390866,ch2m_CRF2_corrHV
mo_pfhps_i_cor,0.7044498815064482,ch2m_CRF2_corrHV
mo_PFOS_cor,0.7360906620778729,ch2m_CRF2_corrHV
mo_PFHpA_>=LOD,0.7755862391171675,ch2m_CRF2_corrHV
mo_PFDoDA_>=LOD,0.7628315756049784,ch2m_CRF2_corrHV
mo_PFTrDA_>=LOD,0.5834444485755332,ch2m_CRF2_corrHV
mo_PFBS_>=LOD,0.7504977879750108,ch2m_CRF2_corrHV
mo_PFOSA_>=LOD,0.7302337273907054,ch2m_CRF2_corrHV
mo__6_2diPAP_>=LOD,0.6947183498351084,ch2m_CRF2_corrHV
mo__8_2diPAP_>=LOD,0.45179257458584976,ch2m_CRF2_corrHV
mo_PFHxPA_>=LOD,0.42794810003620176,ch2m_CRF2_corrHV
mo_PFOA_cor,0.7755518018522927,tidalvolumeml
mo_PFNA,0.9170107741800497,tidalvolumeml
mo_pfda_i_cor,0.8150486944508071,tidalvolumeml
mo_pfunda_i_cor,0.14388200494074388,tidalvolumeml
mo_PFHxS_cor,0.6404430565121659,tidalvolumeml
mo_pfhps_i_cor,0.7191960041119456,tidalvolumeml
mo_PFOS_cor,0.9685134476161072,tidalvolumeml
mo_PFHpA_>=LOD,0.22780563947695276,tidalvolumeml
mo_PFDoDA_>=LOD,0.2823967466035118,tidalvolumeml
mo_PFTrDA_>=LOD,0.07152507568549415,tidalvolumeml
mo_PFBS_>=LOD,0.7610125531892162,tidalvolumeml
mo_PFOSA_>=LOD,0.06071563296237237,tidalvolumeml
mo__6_2diPAP_>=LOD,0.5001853532732892,tidalvolumeml
mo__8_2diPAP_>=LOD,0.8039731410311037,tidalvolumeml
mo_PFHxPA_>=LOD,0.011991478100829234,tidalvolumeml
mo_PFOA_cor,0.5541958319396629,ratiopefexptime
mo_PFNA,0.7637476371653813,ratiopefexptime
mo_pfda_i_cor,0.8181800611565908,ratiopefexptime
mo_pfunda_i_cor,0.6365601413327697,ratiopefexptime
mo_PFHxS_cor,0.3339668095652222,ratiopefexptime
mo_pfhps_i_cor,0.8648205886130551,ratiopefexptime
mo_PFOS_cor,0.6209204737201213,ratiopefexptime
mo_PFHpA_>=LOD,0.6188596768902701,ratiopefexptime
mo_PFDoDA_>=LOD,0.8269839157265331,ratiopefexptime
mo_PFTrDA_>=LOD,0.3714895206143378,ratiopefexptime
mo_PFBS_>=LOD,0.32808922618300707,ratiopefexptime
mo_PFOSA_>=LOD,0.48117416095356136,ratiopefexptime
mo__6_2diPAP_>=LOD,0.5668889470337584,ratiopefexptime
mo__8_2diPAP_>=LOD,0.11086387276988097,ratiopefexptime
mo_PFHxPA_>=LOD,0.9703312291491999,ratiopefexptime
