"vars";"beta";"IC_inf";"IC_sup";"p_val";"outcome";"outliers_excluded";"beta";"IC_inf";"IC_sup";"p_val";"outcome";"outliers_excluded";"beta";"IC_inf";"IC_sup";"p_val";"outcome";"outliers_excluded";"beta";"IC_inf";"IC_sup";"p_val";"outcome";"outliers_excluded"
"mo_PFOA_cor";-1.40629648189049;-11.7847550909242;8.97216212714328;0.789775099321008;"AX";"E";-0.025584422318365;-0.386495253898888;0.335326409262158;0.889068436842355;"X7";"E";-0.105834543783564;-0.759438886875508;0.547769799308379;0.750045241388897;"R7";"E";-0.1366263851892;-0.435218698480443;0.161965928102042;0.368333529859571;"R7-19";"E"
"mo_PFNA";-6.64136753125653;-18.4705024146257;5.1877673521126;0.269872464079801;"AX";"E";0.0710722415589336;-0.342240141951298;0.484384625069165;0.735125177576859;"X7";"E";-0.395245169393683;-1.14225320825167;0.3517628694643;0.298363354697901;"R7";"E";-0.131833162559621;-0.47563250647865;0.211966181359408;0.450801101770446;"R7-19";"E"
"mo_pfda_i_cor";-5.08873339160767;-14.3106891209305;4.13322233771521;0.2781574342903;"AX";"E";0.207474677164187;-0.114223702528683;0.529173056857057;0.20517674691938;"X7";"E";-0.212223402454082;-0.79865896512817;0.374212160220006;0.476648534856793;"R7";"E";-0.215883529438726;-0.483728176876633;0.0519611179991796;0.113673166090237;"R7-19";"E"
"mo_pfunda_i_cor";-5.57009637377609;-15.3675439965979;4.22735124904571;0.263890877002012;"AX";"E";0.249925967968031;-0.0935481742566588;0.593400110192721;0.153068956485325;"X7";"E";-0.3236366460615;-0.943498378794482;0.296225086671481;0.304780704670183;"R7";"E";-0.0745488414463826;-0.363203013363951;0.214105330471185;0.611425150926879;"R7-19";"E"
"mo_PFHxS_cor";-2.23231593353664;-12.1311091781363;7.66647731106305;0.657297431650968;"AX";"E";0.257873947539028;-0.0897085099611942;0.60545640503925;0.145207835327951;"X7";"E";-0.142619016501245;-0.766331440915817;0.481093407913328;0.652828168025515;"R7";"E";-0.280721305625778;-0.566244948250664;0.00480233699910743;0.0539486273048368;"R7-19";"E"
"mo_pfhps_i_cor";-7.4966484548544;-16.8407992219303;1.84750231222149;0.115340480113235;"AX";"E";0.289921403200479;-0.0360456330224747;0.615888439423433;0.0810452861173303;"X7";"E";-0.386937594595752;-0.976663842488839;0.202788653297334;0.197445738417781;"R7";"E";-0.178440349542776;-0.447801880403485;0.0909211813179341;0.19317583604261;"R7-19";"E"
"mo_PFOS_cor";-3.55195527559762;-12.447975558721;5.34406500752572;0.432367992237257;"AX";"E";0.250343541107699;-0.0601313295658518;0.560818411781249;0.113528893023651;"X7";"E";-0.342947763076208;-0.909872322151072;0.223976795998656;0.234605027411576;"R7";"E";-0.0833962184521191;-0.343828461478484;0.177036024574246;0.528803229838424;"R7-19";"E"
"mo_PFOA_cor";0.557345141217243;-9.09274468868505;10.2074349711195;0.909512518907691;"AX";"EO";0.0228760132435454;-0.313426983154012;0.359179009641103;0.893516521810937;"X7";"EO";-0.0598075510733337;-0.672771444884079;0.553156342737412;0.847743429132498;"R7";"EO";-0.0424531121649648;-0.320274240960732;0.235368016630802;0.763661968495109;"R7-19";"EO"
"mo_PFNA";-5.31617425875419;-16.3157876506668;5.68343913315842;0.342021709393734;"AX";"EO";0.148049087905761;-0.237740638861285;0.533838814672808;0.450412945465372;"X7";"EO";-0.379966967047792;-1.08047979394912;0.320545859853536;0.286369080092389;"R7";"EO";-0.0758775234355731;-0.393189179042514;0.241434132171368;0.638029207020422;"R7-19";"EO"
"mo_pfda_i_cor";-3.24492335894326;-11.9479759515401;5.45812923365355;0.463374875528942;"AX";"EO";0.227772263942896;-0.0837288236447504;0.539273351530542;0.151055228768606;"X7";"EO";-0.246858469759134;-0.797053288135669;0.303336348617401;0.377663934867668;"R7";"EO";-0.201976370879988;-0.448520917558386;0.0445681757984096;0.107885195720111;"R7-19";"EO"
"mo_pfunda_i_cor";-6.23289401705805;-15.3750635739104;2.90927553979432;0.180531886064825;"AX";"EO";0.20118792168513;-0.122044987333654;0.524420830703914;0.221357636026509;"X7";"EO";-0.303744664802318;-0.889799830749558;0.282310501144921;0.308294261198526;"R7";"EO";-0.0127423279633023;-0.278453883925842;0.252969227999237;0.92481652189159;"R7-19";"EO"
"mo_PFHxS_cor";3.03932515165083;-6.25614961172008;12.3347999150217;0.520126145726475;"AX";"EO";0.146296113170541;-0.178794181121099;0.471386407462181;0.376240713365193;"X7";"EO";0.028446158400272;-0.552954781961876;0.60984709876242;0.923297839934002;"R7";"EO";-0.125896707190922;-0.392017638555359;0.140224224173514;0.352312366054002;"R7-19";"EO"
"mo_pfhps_i_cor";-4.20953854820875;-12.9491062660022;4.5300291695847;0.343657689832581;"AX";"EO";0.213103880054797;-0.0909323723663151;0.51714013247591;0.168643966588879;"X7";"EO";-0.313533940372192;-0.864405562246407;0.237337681502023;0.263325723779763;"R7";"EO";-0.0660144098926685;-0.316826003531262;0.184797183745925;0.604596985936707;"R7-19";"EO"
"mo_PFOS_cor";-1.45969210343492;-9.70944749731231;6.79006329044247;0.727731375561072;"AX";"EO";0.225817362884795;-0.0635138682997795;0.515148594069369;0.125495629349829;"X7";"EO";-0.304017713595216;-0.833932018098545;0.225896590908112;0.25953816089537;"R7";"EO";-0.0192918445347972;-0.259888985533139;0.221305296463544;0.874626222827075;"R7-19";"EO"
"mo_PFOA_cor";0.569023174572538;-7.41315970300781;8.55120605215289;0.888450053122143;"AX";"O";0.077789404368042;-0.199898565265524;0.355477374001608;0.58160838875895;"X7";"O";0.0417362939033291;-0.466560490972859;0.550033078779517;0.871651929939156;"R7";"O";-0.0749123928064553;-0.306062451761346;0.156237666148436;0.523845341562913;"R7-19";"O"
"mo_PFNA";-3.8136586097017;-13.3628326955617;5.73551547615828;0.432258966393089;"AX";"O";0.21507144639162;-0.117579716183704;0.547722608966945;0.204057735861745;"X7";"O";-0.308612413495865;-0.915507330865963;0.298282503874232;0.317525079757904;"R7";"O";-0.160273257907107;-0.435680153675962;0.115133637861747;0.252807788625058;"R7-19";"O"
"mo_pfda_i_cor";-4.19567551482016;-11.8321899469206;3.44083891728022;0.280234191287022;"AX";"O";0.263367289534577;-0.00549093682258067;0.532225515891734;0.0548278972087797;"X7";"O";-0.296195110249731;-0.776265461177033;0.183875240677571;0.225437607884088;"R7";"O";-0.188782925555118;-0.405294483479521;0.0277286323692858;0.0871643272549139;"R7-19";"O"
"mo_pfunda_i_cor";-8.40933808987844;-16.5006156798583;-0.318060499898634;0.0417129132955292;"AX";"O";0.219863324816661;-0.0644081217470385;0.50413477138036;0.128946586577403;"X7";"O";-0.436753907460074;-0.954003134320991;0.0804953194008429;0.097558971982783;"R7";"O";-0.0796513011353395;-0.313170482828456;0.153867880557777;0.502320775560441;"R7-19";"O"
"mo_PFHxS_cor";3.00791156655667;-5.54083071048711;11.5566538436004;0.488940214015333;"AX";"O";0.0517235426090739;-0.243804969077979;0.347252054296127;0.730590649312408;"X7";"O";0.157106622212148;-0.381679515308886;0.695892759733181;0.566260643942258;"R7";"O";-0.0684529158089247;-0.313726128673722;0.176820297055873;0.583016819198594;"R7-19";"O"
"mo_pfhps_i_cor";1.5962093462419;-5.8903543129972;9.08277300548101;0.674885994756418;"AX";"O";0.0987677660850907;-0.160980604839377;0.358516137009558;0.454601051432114;"X7";"O";0.00218655018492735;-0.47243247691377;0.476805577283625;0.992767299664022;"R7";"O";-0.0189472192530643;-0.235710890123319;0.19781645161719;0.863447550660045;"R7-19";"O"
"mo_PFOS_cor";-2.39498135535294;-9.80509213761778;5.0151294269119;0.524974547743088;"AX";"O";0.193966629911339;-0.0642319565027858;0.452165216325463;0.140241720547739;"X7";"O";-0.339684594618542;-0.81005121474153;0.130682025504447;0.156168756110876;"R7";"O";-0.0772034142879588;-0.291713854019337;0.13730702544342;0.479063552141541;"R7-19";"O"
"mo_PFHpA_cat";3.45448760500526;-5.39801911934656;12.3069943293571;0.442857097223019;"AX";"O";0.0830745388938087;-0.225416596956584;0.391565674744201;0.596301913582292;"X7";"O";0.12404497577158;-0.437863461102836;0.685953412645996;0.664076025336091;"R7";"O";0.0753673097964294;-0.180262426184391;0.33099704577725;0.561962851477567;"R7-19";"O"
"mo_PFDoDA_cat";-6.92437218429277;-18.2544879573026;4.40574358871704;0.229842738979333;"AX";"O";0.230191193690344;-0.169548128264405;0.629930515645093;0.257800589782852;"X7";"O";-0.414809708804619;-1.14241092108711;0.31279150347787;0.26256912810379;"R7";"O";-0.253544973309248;-0.579493269313267;0.0724033226947717;0.12677455237804;"R7-19";"O"
"mo_PFTrDA_cat";-8.74514213866892;-17.0511720601246;-0.439112217213189;0.0391403748931625;"AX";"O";0.263922999384103;-0.0236596513943432;0.55150565016255;0.0718885258549085;"X7";"O";-0.249081166563012;-0.778189258593671;0.280026925467646;0.35471385636422;"R7";"O";-0.165613515246912;-0.400859221397592;0.0696321909037683;0.166805700402679;"R7-19";"O"
"mo_PFBS_cat";-0.566985467156381;-8.58646933384568;7.45249839953292;0.889360403782228;"AX";"O";-0.0860032131898733;-0.361722487600194;0.189716061220448;0.539530234660828;"X7";"O";0.0881583109163748;-0.422110054708844;0.598426676541594;0.733923570081971;"R7";"O";-0.0137016908964669;-0.24312709036805;0.215723708575116;0.906455334809031;"R7-19";"O"
"mo_PFOSA_cat";-2.02791918040287;-10.3459213649224;6.29008300411661;0.631509331162231;"AX";"O";-0.21274525764834;-0.503356351976679;0.0778658366799988;0.150599644592608;"X7";"O";0.43297008874496;-0.0929625772834519;0.958902754773372;0.10618991499514;"R7";"O";-0.0886032360883541;-0.328458327398686;0.151251855221978;0.467549578860786;"R7-19";"O"
"mo__6_2diPAP_cat";-6.0285121105559;-15.2290692159236;3.17204499481178;0.198057634123333;"AX";"O";0.293079344556333;-0.0250437772061647;0.611202466318832;0.0708039347563367;"X7";"O";-0.277202134133912;-0.863264708225342;0.308860439957518;0.352440411801457;"R7";"O";-0.110203062049027;-0.373261360473241;0.152855236375187;0.410084943555543;"R7-19";"O"
"mo__8_2diPAP_cat";-5.78873850342634;-17.7189402737366;6.14146326688391;0.340151333318635;"AX";"O";0.156242668047834;-0.248191135940651;0.560676472036319;0.447427476153395;"X7";"O";-0.312952491891419;-1.08701054846753;0.46110556468469;0.426601625519412;"R7";"O";-0.273195235317152;-0.607773362384314;0.0613828917500098;0.10905167066074;"R7-19";"O"
"mo_PFHxPA_cat";-0.256745833394603;-10.8586939346478;10.3452022678586;0.961994739422854;"AX";"O";-0.0465791623483597;-0.411583116154908;0.318424791458189;0.801750709629859;"X7";"O";0.404884484530507;-0.278185839176628;1.08795480823764;0.244138888267585;"R7";"O";-0.0316106643802761;-0.333601186490334;0.270379857729782;0.83682618933127;"R7-19";"O"
