"vars";"beta";"IC_inf";"IC_sup";"p_val";"outcome";"outliers_excluded";"beta";"IC_inf";"IC_sup";"p_val";"outcome";"outliers_excluded";"beta";"IC_inf";"IC_sup";"p_val";"outcome";"outliers_excluded";"beta";"IC_inf";"IC_sup";"p_val";"outcome";"outliers_excluded"
"mo_PFOA_cor";0.482832078734193;0.227773389241598;1.02350330313391;0.0574787619114754;"asthma";"E";1.03143678979849;0.61011385562483;1.74371036084781;0.907785087815828;"wheeze";"E";0.827082023431575;0.482994779229682;1.41629827671154;0.488115232887262;"bronchiolitis";"E";0.914042453949142;0.492187722563919;1.69746941932886;0.775426147070244;"bronchitis";"E"
"mo_PFNA";0.687119573348901;0.298161130673383;1.58348375931123;0.37738891254124;"asthma";"E";0.712876921125269;0.395764256206988;1.28408136081711;0.258857132937877;"wheeze";"E";0.711534936964722;0.386687613370671;1.30927898648794;0.273185171160112;"bronchiolitis";"E";1.35221292476078;0.67144578312843;2.72319797046123;0.397256271583559;"bronchitis";"E"
"mo_pfda_i_cor";1.02062181064342;0.518952046517999;2.00725459577684;0.952712803881894;"asthma";"E";1.016626232821;0.624993099079312;1.65366449450774;0.946901762069901;"wheeze";"E";0.761979609562304;0.454080217223045;1.27865716973863;0.302475156608047;"bronchiolitis";"E";1.19472659139176;0.673480117974286;2.11939683159745;0.542037428934099;"bronchitis";"E"
"mo_pfunda_i_cor";0.766393177335276;0.382163342430461;1.53693051387558;0.452632025670132;"asthma";"E";0.682278900033948;0.411328711319815;1.13170922578657;0.138244543529106;"wheeze";"E";0.666715169402858;0.393138988896279;1.13066658272644;0.132107118445992;"bronchiolitis";"E";0.824433856081642;0.454367598722215;1.49590592499353;0.524416441307526;"bronchitis";"E"
"mo_PFHxS_cor";0.871478796943357;0.43027156933892;1.76510684795818;0.701752949239859;"asthma";"E";0.966228727456744;0.584068740700574;1.59843848626936;0.89332227184975;"wheeze";"E";1.3337723170631;0.792114364806498;2.2458229175006;0.27780083362221;"bronchiolitis";"E";1.21042802815153;0.669279936760086;2.18912286303901;0.526637545914417;"bronchitis";"E"
"mo_pfhps_i_cor";0.925092244417473;0.481630583867358;1.77687150556254;0.814682867921671;"asthma";"E";0.962838769054364;0.604041806784952;1.53475882758587;0.873200317427118;"wheeze";"E";1.08117009364622;0.667748833840151;1.75055157292092;0.750319690658689;"bronchiolitis";"E";1.40572644258837;0.804044405943863;2.45765882678141;0.231425270978584;"bronchitis";"E"
"mo_PFOS_cor";1.0056885452705;0.538545450481687;1.87803916862293;0.98576149876359;"asthma";"E";0.941025953301799;0.598153120351844;1.480440065692;0.792108930857189;"wheeze";"E";0.81519814511019;0.510811531715515;1.30096517899521;0.390612637637414;"bronchiolitis";"E";1.15580607286485;0.674963390921082;1.97920019965565;0.596909346546028;"bronchitis";"E"
