"var_name";"tercile";"beta.x";"CI_inf.x";"CI_sup.x";"pval.x";"p_wald.x";"p_trend.x";"outcome.x";"beta.y";"CI_inf.y";"CI_sup.y";"pval.y";"p_wald.y";"p_trend.y";"outcome.y";"beta.x.x";"CI_inf.x.x";"CI_sup.x.x";"pval.x.x";"p_wald.x.x";"p_trend.x.x";"outcome.x.x";"beta.y.y";"CI_inf.y.y";"CI_sup.y.y";"pval.y.y";"p_wald.y.y";"p_trend.y.y";"outcome.y.y"
"mo_PFOA_cor";"terc 2";-0.0874636200947096;-0.358086828085469;0.18315958789605;0.52530763765264;"0.683849815393293";"0.393729547091104";"LCI";1.38719672383404;-3.13485364821106;5.90924709587915;0.546566215965888;"0.833139477175826";"0.745523284958127";"CRF";-0.280826537257714;-2.03380750420322;1.47215442968779;0.752766494962634;"0.939691988333784";"0.755018038681672";"VT";-0.497880848027868;-3.3876320684995;2.39187037244376;0.734785782227498;"0.606042225383734";"0.33539707336401";"ratio"
"mo_PFOA_cor";"terc 3";-0.130839928526395;-0.435463566912891;0.173783709860102;0.398707602109179;"-";"-";"LCI";0.787698511263019;-4.30352499838371;5.87892202090975;0.761015766781036;"-";"-";"CRF";-0.305837720819522;-2.31832809607711;1.70665265443807;0.765082149290286;"-";"-";"VT";-1.65260742834789;-4.96937519923537;1.6641603425396;0.327588863859143;"-";"-";"ratio"
"mo_PFNA";"terc 2";-0.0388082348740463;-0.300830394156498;0.223213924408406;0.770928495317315;"0.956383038444772";"0.825050487031094";"LCI";1.47276324695444;-2.89928809792172;5.8448145918306;0.507956269010053;"0.701586957062307";"0.420357046546624";"CRF";-0.785196991794057;-2.48001899273439;0.909625009146277;0.362621571041403;"0.64955822612224";"0.70149906194531";"VT";-0.330863664918426;-3.122179831353;2.46045250151614;0.81570339306659;"0.373996937226394";"0.207548299570106";"ratio"
"mo_PFNA";"terc 3";-0.0277493545195131;-0.300791435740424;0.245292726701398;0.841640252757254;"-";"-";"LCI";1.79923781913061;-2.75452453270284;6.35300017096405;0.437511680515077;"-";"-";"CRF";-0.265215842353916;-2.05148525803199;1.52105357332415;0.770330423135676;"-";"-";"VT";-1.97237413436792;-4.91486255052089;0.970114281785054;0.188122047167812;"-";"-";"ratio"
"mo_pfda_i_cor";"terc 2";-0.019686631653672;-0.281616213037568;0.242242949730224;0.882532572369177;"0.986162322060061";"0.887487112765379";"LCI";-1.10550798300781;-5.47683433690416;3.26581837088854;0.619122106931074;"0.878052457549671";"0.727896823617247";"CRF";0.138020096901356;-1.6055509096768;1.88159110347951;0.876302878791686;"0.939841643629849";"0.724680614666678";"VT";1.87255818803771;-0.99524484264733;4.74036121872274;0.199776949024597;"0.333781767782057";"0.981891921986586";"ratio"
"mo_pfda_i_cor";"terc 3";-0.01971475794914;-0.294219313751291;0.254789797853011;0.887717787450067;"-";"-";"LCI";-0.808969738928067;-5.39002921035341;3.77208973249728;0.728488038517756;"-";"-";"CRF";0.313242480282352;-1.44380232315843;2.07028728372313;0.725938798964605;"-";"-";"VT";0.0614318976147118;-2.82856545133294;2.95142924656236;0.96665846173051;"-";"-";"ratio"
"mo_pfunda_i_cor";"terc 2";0.0576035673470556;-0.20760160790087;0.322808742594981;0.669413098308544;"0.750265971322811";"0.77335341905017";"LCI";-0.980727435555303;-5.40545333085493;3.44399845974432;0.663065397511465;"0.621698592028865";"0.3329852157927";"CRF";0.152692550638289;-1.59815420788704;1.90353930916362;0.863839805797516;"0.976259923937755";"0.834599249421918";"VT";-1.38303317501404;-4.26803304887936;1.50196669885129;0.346212697319054;"0.585528991942968";"0.381118446828386";"ratio"
"mo_pfunda_i_cor";"terc 3";-0.042292829799143;-0.312905842206609;0.228320182608323;0.758669309519503;"-";"-";"LCI";-2.2283581710882;-6.74383934043349;2.28712299825709;0.332312699238696;"-";"-";"CRF";0.190291254388379;-1.60910161995535;1.98968412873211;0.835270384697498;"-";"-";"VT";-1.31418426171721;-4.27964062666139;1.65127210322698;0.38381894319943;"-";"-";"ratio"
"mo_PFHxS_cor";"terc 2";-0.0130756672705271;-0.281562421393444;0.255411086852389;0.923722919579935;"0.825347375246283";"0.567291109200165";"LCI";4.77682525874013;0.324932717546602;9.22871779993365;0.0355490612816152;"0.10119406143718";"0.421240831422973";"CRF";-0.419337871918829;-2.1600609397662;1.32138519592855;0.635772349329484;"0.803406852341201";"0.519872240901719";"VT";2.09892355608652;-0.743927557903849;4.9417746700769;0.147271997743801;"0.0319449489456367";"0.287771702971567";"ratio"
"mo_PFHxS_cor";"terc 3";-0.0826185413265483;-0.366625760084807;0.20138867743171;0.567484981075885;"-";"-";"LCI";1.92426460103869;-2.78391585484174;6.63244505691913;0.421921185027688;"-";"-";"CRF";-0.611722454172344;-2.48931197171046;1.26586706336577;0.521887194580501;"-";"-";"VT";-1.72090025202769;-4.78740581330437;1.34560530924899;0.270290236730278;"-";"-";"ratio"
"mo_pfhps_i_cor";"terc 2";0.0499264410867636;-0.220578356627648;0.320431238801176;0.716742002983533;"0.936205199329386";"0.863132176625374";"LCI";0.0314849641978174;-4.48261649202004;4.54558642041568;0.989059569372334;"0.873656363443358";"0.646236786247465";"CRF";-0.984413577159352;-2.72252321173052;0.753696057411818;0.265904104339008;"0.486376720990421";"0.849243452514076";"VT";-2.46503291849509;-5.30734859324963;0.377282756259454;0.088908709807423;"0.0327298940256866";"0.0103880724016021";"ratio"
"mo_pfhps_i_cor";"terc 3";0.0231908384273557;-0.243204885807887;0.289586562662598;0.864111520044663;"-";"-";"LCI";1.03773179690489;-3.406095618635;5.48155921244478;0.646218949865933;"-";"-";"CRF";-0.175237188114389;-1.95610837952459;1.60563400329581;0.846575989946309;"-";"-";"VT";-3.81595769620639;-6.73032594686313;-0.901589445549655;0.010457348212221;"-";"-";"ratio"
"mo_PFOS_cor";"terc 2";0.101013177662417;-0.170865156663664;0.372891511988498;0.465315993477058;"0.735143304547443";"0.886385525886791";"LCI";-0.638344826483545;-5.17998793339634;3.90329828042925;0.782311448590109;"0.700037685577842";"0.409807212459449";"CRF";0.0524985844084667;-1.70569583398313;1.81069300280006;0.953178301009651;"0.696031922633965";"0.491979014255859";"VT";-3.24191411264727;-6.11611754913447;-0.367710676160083;0.0271921666966999;"0.0446752321491293";"0.03304853466031";"ratio"
"mo_PFOS_cor";"terc 3";0.0177913186265203;-0.251994952009821;0.287577589262861;0.896846127294858;"-";"-";"LCI";-1.89253330126937;-6.39398122994639;2.60891462740766;0.40874761272177;"-";"-";"CRF";-0.620332388753782;-2.38195860675858;1.14129382925102;0.488833300281925;"-";"-";"VT";-3.11633361350055;-5.99714735641535;-0.235519870585756;0.0340886949598458;"-";"-";"ratio"
